{
   "abstract" : "Perl extension for managing Lemonldap::NG Web-SSO system.",
   "author" : [
      "Xavier Guimard <x.guimard@free.fr>, Clement Oudot <clement@oodo.net>, Christophe Maudoux <chrmdx@gmail.com>, Maxime Besson <maxime.besson@worteks.com>"
   ],
   "dynamic_config" : 1,
   "generated_by" : "ExtUtils::MakeMaker version 7.34, CPAN::Meta::Converter version 2.150010",
   "license" : [
      "open_source"
   ],
   "meta-spec" : {
      "url" : "http://search.cpan.org/perldoc?CPAN::Meta::Spec",
      "version" : 2
   },
   "name" : "Lemonldap-NG-Manager",
   "no_index" : {
      "directory" : [
         "t",
         "inc"
      ]
   },
   "prereqs" : {
      "build" : {
         "requires" : {
            "Email::Sender" : "0",
            "IO::String" : "0",
            "Regexp::Common" : "0",
            "Test::Output" : "0",
            "Test::Pod" : "1"
         }
      },
      "configure" : {
         "requires" : {
            "ExtUtils::MakeMaker" : "0"
         }
      },
      "runtime" : {
         "recommends" : {
            "LWP::Protocol::https" : "0"
         },
         "requires" : {
            "Convert::PEM" : "0",
            "Crypt::OpenSSL::RSA" : "0",
            "LWP::UserAgent" : "0",
            "Lemonldap::NG::Common" : "v2.0.14",
            "Lemonldap::NG::Handler" : "v2.0.14"
         }
      }
   },
   "release_status" : "stable",
   "resources" : {
      "X_twitter" : "https://twitter.com/lemonldapng",
      "bugtracker" : {
         "web" : "https://gitlab.ow2.org/lemonldap-ng/lemonldap-ng/issues"
      },
      "homepage" : "https://lemonldap-ng.org/",
      "license" : [
         "http://opensource.org/licenses/GPL-2.0"
      ],
      "x_MailingList" : "mailto:lemonldap-ng-dev@ow2.org"
   },
   "version" : "v2.0.15",
   "x_serialization_backend" : "JSON::PP version 4.04"
}
